<?xml version="1.0" encoding="UTF-8"?>
<DataFileEntity>
   <description></description>
   <name>clientSelection</name>
   <tag></tag>
   <containsHeaders>true</containsHeaders>
   <csvSeperator></csvSeperator>
   <dataFileGUID>22e39ec6-4e9c-4057-8603-3d21ee6c1944</dataFileGUID>
   <dataSourceUrl>Data Files/DailyProdData/DailyProd.xlsx</dataSourceUrl>
   <driver>ExcelFile</driver>
   <isInternalPath>true</isInternalPath>
   <query></query>
   <secureUserAccount>false</secureUserAccount>
   <sheetName>Sheet1</sheetName>
   <usingGlobalDBSetting>false</usingGlobalDBSetting>
</DataFileEntity>
